{
  "name": "dice-calculator",
  "title": "Dice Tray",
  "description": "Adds a dice tray below chat, and turns the d20 near chat into a dice calculator.",
  "version": "0.5.10",
  "author": "Asacolips",
  "minimumCoreVersion": "0.5.0",
  "compatibleCoreVersion": "0.6.1",
  "scripts": [
    "./scripts/js.cookie.js",
    "./scripts/dice-calculator.js",
    "./scripts/dice-tray.js"
  ],
  "styles": [
    "./css/dice-calculator.css"
  ],
  "packs": [],
  "url": "https://gitlab.com/asacolips-projects/foundry-mods/foundry-vtt-dice-calculator",
  "manifest": "https://gitlab.com/asacolips-projects/foundry-mods/foundry-vtt-dice-calculator/raw/master/module.json",
  "download": "https://gitlab.com/asacolips-projects/foundry-mods/foundry-vtt-dice-calculator/-/archive/0.5.10/foundry-vtt-dice-calculator-master.zip"
}
